45, 43, 49, 30, 20, 21, 25, 28, 24, 27, 29, 22, 24, 28, 22, 25, 28, 27, 22, 33, 44, 45, 5, 25, 22, 23, 24, 22, 22, 23, 22, 24, 24, 22, 24, 27, 22, 24, 3, 2, 1, 25, 22, 23, 24, 22, 22, 23, 22, 24, 24, 22, 24, 27, 22, 24, 22, 23, 18, 20, 19, 23, 24, 22, 22, 23, 22, 24, 24, 22, 24, 27, 22, 24, 22, 24, 24, 25, 22, 23, 24, 22, 22, 23, 22, 24, 24, 22, 24, 27, 22, 24, 22, 24, 24
45, 43, 49, 30, 20, 21, 25, 28, 24, 27, 29, 22, 24, 28, 22, 25, 28, 27, 22, 33, 44, 45, 5, 25, 22, 23, 24, 22, 22, 23, 22, 24, 24, 22, 24, 27, 22, 24, 3, 2, 1, 25, 22, 23, 24, 22, 22, 23, 22, 24, 24, 22, 24, 27, 22, 24, 22, 23, 18, 20, 19, 23, 24, 22, 22, 23, 22, 24, 24, 22, 24, 27, 22, 24, 22, 24, 24, 25, 22, 23, 24, 22, 22, 23, 22, 24, 24, 22, 24, 27, 22, 24, 22, 24, 24
20, 17, 19, 19, 11, 20, 14, 19, 1, 10, 16, 21, 19, 8, 12, 19, 22, 7, 10, 17, 22, 16, 3, 19, 4, 20, 19, 8, 2, 10, 19, 15, 17, 20, 15, 7, 10, 17, 22, 16, 3, 19, 4, 20, 19, 8, 2, 10, 19, 15, 17, 20, 15, 7, 10, 17, 22, 16, 3, 19, 4, 20, 19, 8, 2, 10, 19, 15, 17, 20, 15, 7, 10, 17, 22, 16, 3, 19, 4, 20, 19, 8, 2, 10, 19, 15, 17, 20, 15, 7, 10, 17, 22, 16, 3
21, 20, 18, 21, 20, 21, 20, 20, 23, 22, 20, 22, 21, 24, 22, 19, 22, 22, 23, 20, 24, 20, 21, 19, 23, 21, 20, 23, 22, 22, 20, 20, 23, 21, 21, 22, 23, 20, 24, 20, 21, 19, 23, 21, 20, 23, 22, 22, 20, 20, 23, 21, 21, 22, 23, 20, 24, 20, 21, 19, 23, 21, 20, 23, 22, 22, 20, 20, 23, 21, 21, 22, 23, 20, 24, 20, 21, 19, 23, 21, 20, 23, 22, 22, 20, 20, 23, 21, 21, 22, 23, 20, 24, 20, 21
22, 19, 19, 23, 18, 22, 22, 21, 23, 21, 19, 22, 21, 23, 22, 21, 21, 22, 22, 19, 24, 20, 21, 21, 22, 22, 22, 23, 22, 21, 21, 20, 22, 22, 21, 22, 22, 19, 24, 20, 21, 21, 22, 22, 22, 23, 22, 21, 21, 20, 22, 22, 21, 22, 22, 19, 24, 20, 21, 21, 22, 22, 22, 23, 22, 21, 21, 20, 22, 22, 21, 22, 22, 19, 24, 20, 21, 21, 22, 22, 22, 23, 22, 21, 21, 20, 22, 22, 21, 22, 22, 19, 24, 20, 21
21, 18, 21, 24, 21, 20, 26, 22, 22, 20, 21, 21, 20, 21, 21, 23, 21, 20, 20, 20, 23, 22, 21, 22, 21, 22, 23, 21, 22, 20, 23, 22, 19, 22, 21, 20, 20, 20, 23, 22, 21, 22, 21, 22, 23, 21, 22, 20, 23, 22, 19, 22, 21, 20, 20, 20, 23, 22, 21, 22, 21, 22, 23, 21, 22, 20, 23, 22, 19, 22, 21, 20, 20, 20, 23, 22, 21, 22, 21, 22, 23, 21, 22, 20, 23, 22, 19, 22, 21, 20, 20, 20, 23, 22, 21
21, 20, 23, 23, 25, 19, 27, 23, 21, 20, 22, 22, 21, 21, 20, 23, 22, 19, 22, 21, 22, 23, 23, 22, 21, 22, 23, 20, 21, 22, 23, 24, 19, 22, 23, 19, 22, 21, 22, 23, 23, 22, 21, 22, 23, 20, 21, 22, 23, 24, 19, 22, 23, 19, 22, 21, 22, 23, 23, 22, 21, 22, 23, 20, 21, 22, 23, 24, 19, 22, 23, 19, 22, 21, 22, 23, 23, 22, 21, 22, 23, 20, 21, 22, 23, 24, 19, 22, 23, 19, 22, 21, 22, 23, 23
21, 22, 26, 20, 24, 24, 25, 23, 20, 22, 22, 23, 25, 22, 22, 22, 24, 22, 25, 23, 21, 23, 25, 22, 23, 23, 22, 23, 19, 25, 21, 23, 19, 20, 25, 22, 25, 23, 21, 23, 25, 22, 23, 23, 22, 23, 19, 25, 21, 23, 19, 20, 25, 22, 25, 23, 21, 23, 25, 22, 23, 23, 22, 23, 19, 25, 21, 23, 19, 20, 25, 22, 25, 23, 21, 23, 25, 22, 23, 23, 22, 23, 19, 25, 21, 23, 19, 20, 25, 22, 25, 23, 21, 23, 25
22, 26, 27, 22, 24, 27, 24, 23, 22, 25, 23, 25, 26, 23, 24, 23, 26, 24, 24, 24, 23, 23, 23, 22, 25, 24, 23, 25, 21, 22, 20, 23, 22, 20, 23, 24, 24, 24, 23, 23, 23, 22, 25, 24, 23, 25, 21, 22, 20, 23, 22, 20, 23, 24, 24, 24, 23, 23, 23, 22, 25, 24, 23, 25, 21, 22, 20, 23, 22, 20, 23, 24, 24, 24, 23, 23, 23, 22, 25, 24, 23, 25, 21, 22, 20, 23, 22, 20, 23, 24, 24, 24, 23, 23, 23
23, 30, 26, 26, 26, 24, 23, 26, 25, 26, 25, 27, 24, 25, 25, 24, 24, 24, 22, 26, 25, 24, 20, 23, 22, 24, 25, 22, 25, 19, 22, 23, 25, 24, 20, 24, 22, 26, 25, 24, 20, 23, 22, 24, 25, 22, 25, 19, 22, 23, 25, 24, 20, 24, 22, 26, 25, 24, 20, 23, 22, 24, 25, 22, 25, 19, 22, 23, 25, 24, 20, 24, 22, 26, 25, 24, 20, 23, 22, 24, 25, 22, 25, 19, 22, 23, 25, 24, 20, 24, 22, 26, 25, 24, 20
25, 27, 24, 24, 28, 22, 24, 27, 25, 26, 25, 25, 23, 25, 25, 25, 23, 23, 23, 26, 25, 24, 20, 25, 20, 24, 24, 22, 24, 22, 22, 23, 25, 25, 19, 23, 23, 26, 25, 24, 20, 25, 20, 24, 24, 22, 24, 22, 22, 23, 25, 25, 19, 23, 23, 26, 25, 24, 20, 25, 20, 24, 24, 22, 24, 22, 22, 23, 25, 25, 19, 23, 23, 26, 25, 24, 20, 25, 20, 24, 24, 22, 24, 22, 22, 23, 25, 25, 19, 23, 23, 26, 25, 24, 20
26, 25, 21, 21, 27, 23, 26, 26, 23, 25, 25, 22, 21, 24, 23, 26, 24, 22, 26, 23, 24, 22, 23, 26, 23, 21, 23, 25, 21, 26, 22, 22, 25, 22, 19, 22, 26, 23, 24, 22, 23, 26, 23, 21, 23, 25, 21, 26, 22, 22, 25, 22, 19, 22, 26, 23, 24, 22, 23, 26, 23, 21, 23, 25, 21, 26, 22, 22, 25, 22, 19, 22, 26, 23, 24, 22, 23, 26, 23, 21, 23, 25, 21, 26, 22, 22, 25, 22, 19, 22, 26, 23, 24, 22, 23
26, 26, 21, 24, 27, 23, 25, 24, 23, 23, 24, 24, 22, 22, 21, 25, 25, 21, 25, 22, 23, 21, 24, 24, 26, 19, 21, 26, 21, 26, 23, 20, 23, 21, 20, 21, 25, 22, 23, 21, 24, 24, 26, 19, 21, 26, 21, 26, 23, 20, 23, 21, 20, 21, 25, 22, 23, 21, 24, 24, 26, 19, 21, 26, 21, 26, 23, 20, 23, 21, 20, 21, 25, 22, 23, 21, 24, 24, 26, 19, 21, 26, 21, 26, 23, 20, 23, 21, 20, 21, 25, 22, 23, 21, 24
25, 28, 23, 28, 24, 22, 22, 21, 24, 22, 22, 26, 26, 20, 23, 23, 22, 24, 23, 24, 22, 24, 23, 21, 25, 23, 20, 22, 23, 25, 25, 19, 22, 23, 22, 24, 23, 24, 22, 24, 23, 21, 25, 23, 20, 22, 23, 25, 25, 19, 22, 23, 22, 24, 23, 24, 22, 24, 23, 21, 25, 23, 20, 22, 23, 25, 25, 19, 22, 23, 22, 24, 23, 24, 22, 24, 23, 21, 25, 23, 20, 22, 23, 25, 25, 19, 22, 23, 22, 24, 23, 24, 22, 24, 23
23, 24, 25, 26, 22, 21, 21, 20, 26, 21, 22, 25, 26, 20, 25, 25, 20, 25, 23, 24, 24, 27, 24, 23, 24, 26, 21, 19, 24, 26, 26, 19, 24, 24, 24, 25, 23, 24, 24, 27, 24, 23, 24, 26, 21, 19, 24, 26, 26, 19, 24, 24, 24, 25, 23, 24, 24, 27, 24, 23, 24, 26, 21, 19, 24, 26, 26, 19, 24, 24, 24, 25, 23, 24, 24, 27, 24, 23, 24, 26, 21, 19, 24, 26, 26, 19, 24, 24, 24, 25, 23, 24, 24, 27, 24
21, 20, 27, 23, 23, 24, 23, 21, 27, 23, 25, 23, 24, 21, 26, 27, 23, 22, 24, 21, 26, 23, 26, 27, 21, 23, 24, 21, 24, 27, 27, 23, 26, 26, 26, 22, 24, 21, 26, 23, 26, 27, 21, 23, 24, 21, 24, 27, 27, 23, 26, 26, 26, 22, 24, 21, 26, 23, 26, 27, 21, 23, 24, 21, 24, 27, 27, 23, 26, 26, 26, 22, 24, 21, 26, 23, 26, 27, 21, 23, 24, 21, 24, 27, 27, 23, 26, 26, 26, 22, 24, 21, 26, 23, 26
19, 22, 28, 25, 25, 26, 24, 22, 25, 25, 26, 24, 23, 23, 26, 25, 27, 21, 23, 20, 25, 20, 24, 27, 19, 21, 25, 23, 25, 26, 27, 27, 25, 27, 27, 21, 23, 20, 25, 20, 24, 27, 19, 21, 25, 23, 25, 26, 27, 27, 25, 27, 27, 21, 23, 20, 25, 20, 24, 27, 19, 21, 25, 23, 25, 26, 27, 27, 25, 27, 27, 21, 23, 20, 25, 20, 24, 27, 19, 21, 25, 23, 25, 26, 27, 27, 25, 27, 27, 21, 23, 20, 25, 20, 24
23, 25, 27, 27, 27, 25, 25, 25, 22, 24, 23, 25, 24, 26, 24, 21, 25, 25, 20, 22, 23, 23, 21, 26, 21, 25, 26, 24, 27, 24, 25, 24, 23, 25, 27, 25, 20, 22, 23, 23, 21, 26, 21, 25, 26, 24, 27, 24, 25, 24, 23, 25, 27, 25, 20, 22, 23, 23, 21, 26, 21, 25, 26, 24, 27, 24, 25, 24, 23, 25, 27, 25, 20, 22, 23, 23, 21, 26, 21, 25, 26, 24, 27, 24, 25, 24, 23, 25, 27, 25, 20, 22, 23, 23, 21
26, 24, 25, 26, 29, 24, 24, 26, 23, 23, 21, 25, 24, 26, 22, 23, 24, 27, 21, 23, 21, 25, 22, 24, 23, 27, 25, 25, 25, 23, 24, 22, 25, 24, 26, 27, 21, 23, 21, 25, 22, 24, 23, 27, 25, 25, 25, 23, 24, 22, 25, 24, 26, 27, 21, 23, 21, 25, 22, 24, 23, 27, 25, 25, 25, 23, 24, 22, 25, 24, 26, 27, 21, 23, 21, 25, 22, 24, 23, 27, 25, 25, 25, 23, 24, 22, 25, 24, 26, 27, 21, 23, 21, 25, 22
27, 23, 23, 25, 24, 22, 22, 25, 25, 25, 20, 25, 22, 25, 23, 25, 23, 24, 23, 25, 20, 23, 26, 23, 25, 26, 22, 26, 22, 22, 24, 24, 27, 23, 23, 24, 23, 25, 20, 23, 26, 23, 25, 26, 22, 26, 22, 22, 24, 24, 27, 23, 23, 24, 23, 25, 20, 23, 26, 23, 25, 26, 22, 26, 22, 22, 24, 24, 27, 23, 23, 24, 23, 25, 20, 23, 26, 23, 25, 26, 22, 26, 22, 22, 24, 24, 27, 23, 23, 24, 23, 25, 20, 23, 26
27, 21, 22, 23, 20, 20, 21, 23, 23, 27, 20, 22, 23, 23, 24, 23, 22, 22, 25, 26, 23, 22, 25, 21, 28, 25, 24, 26, 22, 21, 24, 26, 25, 23, 22, 22, 25, 26, 23, 22, 25, 21, 28, 25, 24, 26, 22, 21, 24, 26, 25, 23, 22, 22, 25, 26, 23, 22, 25, 21, 28, 25, 24, 26, 22, 21, 24, 26, 25, 23, 22, 22, 25, 26, 23, 22, 25, 21, 28, 25, 24, 26, 22, 21, 24, 26, 25, 23, 22, 22, 25, 26, 23, 22, 25
24, 19, 24, 22, 21, 21, 20, 23, 20, 24, 22, 20, 25, 20, 26, 20, 20, 22, 27, 27, 27, 24, 22, 20, 27, 23, 27, 25, 25, 21, 26, 26, 21, 25, 24, 22, 27, 27, 27, 24, 22, 20, 27, 23, 27, 25, 25, 21, 26, 26, 21, 25, 24, 22, 27, 27, 27, 24, 22, 20, 27, 23, 27, 25, 25, 21, 26, 26, 21, 25, 24, 22, 27, 27, 27, 24, 22, 20, 27, 23, 27, 25, 25, 21, 26, 26, 21, 25, 24, 22, 27, 27, 27, 24, 22
22, 22, 25, 24, 23, 21, 21, 23, 20, 22, 24, 20, 25, 21, 27, 22, 19, 22, 25, 27, 25, 26, 21, 22, 27, 22, 26, 23, 24, 21, 25, 25, 22, 25, 24, 22, 25, 27, 25, 26, 21, 22, 27, 22, 26, 23, 24, 21, 25, 25, 22, 25, 24, 22, 25, 27, 25, 26, 21, 22, 27, 22, 26, 23, 24, 21, 25, 25, 22, 25, 24, 22, 25, 27, 25, 26, 21, 22, 27, 22, 26, 23, 24, 21, 25, 25, 22, 25, 24, 22, 25, 27, 25, 26, 21
22, 25, 27, 28, 21, 21, 24, 26, 23, 24, 27, 21, 24, 26, 24, 24, 23, 25, 22, 25, 22, 25, 23, 24, 24, 22, 24, 22, 22, 22, 23, 24, 23, 23, 24, 25, 22, 25, 22, 25, 23, 24, 24, 22, 24, 22, 22, 22, 23, 24, 23, 23, 24, 25, 22, 25, 22, 25, 23, 24, 24, 22, 24, 22, 22, 22, 23, 24, 23, 23, 24, 25, 22, 25, 22, 25, 23, 24, 24, 22, 24, 22, 22, 22, 23, 24, 23, 23, 24, 25, 22, 25, 22, 25, 23
24, 29, 30, 29, 20, 21, 25, 28, 24, 27, 29, 22, 24, 28, 22, 25, 28, 27, 22, 25, 28, 24, 14, 25, 22, 23, 24, 22, 22, 23, 22, 24, 24, 22, 24, 27, 22, 24, 17, 23, 20, 25, 22, 23, 24, 22, 22, 23, 22, 24, 24, 22, 24, 27, 22, 24, 22, 23, 18, 20, 22, 23, 24, 22, 22, 23, 22, 24, 24, 22, 24, 27, 22, 24, 22, 24, 24, 25, 22, 23, 24, 22, 22, 23, 22, 24, 24, 22, 24, 27, 22, 24, 22, 24, 24
31, 34, 35, 29, 20, 21, 25, 28, 24, 27, 29, 22, 24, 28, 22, 25, 28, 27, 22, 27, 36, 31, 13, 25, 22, 23, 24, 22, 22, 23, 22, 24, 24, 22, 24, 27, 22, 24, 12, 16, 13, 25, 22, 23, 24, 22, 22, 23, 22, 24, 24, 22, 24, 27, 22, 24, 22, 23, 18, 20, 19, 23, 24, 22, 22, 23, 22, 24, 24, 22, 24, 27, 22, 24, 22, 24, 24, 25, 22, 23, 24, 22, 22, 23, 22, 24, 24, 22, 24, 27, 22, 24, 22, 24, 24
38, 38, 39, 29, 20, 21, 25, 28, 24, 27, 29, 22, 24, 28, 22, 25, 28, 27, 22, 30, 44, 38, 11, 25, 22, 23, 24, 22, 22, 23, 22, 24, 24, 22, 24, 27, 22, 24, 7, 9, 7, 25, 22, 23, 24, 22, 22, 23, 22, 24, 24, 22, 24, 27, 22, 24, 22, 23, 18, 20, 19, 23, 24, 22, 22, 23, 22, 24, 24, 22, 24, 27, 22, 24, 22, 24, 24, 25, 22, 23, 24, 22, 22, 23, 22, 24, 24, 22, 24, 27, 22, 24, 22, 24, 24
45, 43, 44, 30, 20, 21, 25, 28, 24, 27, 29, 22, 24, 28, 22, 25, 28, 27, 22, 33, 44, 45, 9, 25, 22, 23, 24, 22, 22, 23, 22, 24, 24, 22, 24, 27, 22, 24, 3, 2, 1, 25, 22, 23, 24, 22, 22, 23, 22, 24, 24, 22, 24, 27, 22, 24, 22, 23, 18, 20, 19, 23, 24, 22, 22, 23, 22, 24, 24, 22, 24, 27, 22, 24, 22, 24, 24, 25, 22, 23, 24, 22, 22, 23, 22, 24, 24, 22, 24, 27, 22, 24, 22, 24, 24
45, 43, 49, 30, 20, 21, 25, 28, 24, 27, 29, 22, 24, 28, 22, 25, 28, 27, 22, 33, 44, 45, 8, 25, 22, 23, 24, 22, 22, 23, 22, 24, 24, 22, 24, 27, 22, 24, 3, 2, 1, 25, 22, 23, 24, 22, 22, 23, 22, 24, 24, 22, 24, 27, 22, 24, 22, 23, 18, 20, 19, 23, 24, 22, 22, 23, 22, 24, 24, 22, 24, 27, 22, 24, 22, 24, 24, 25, 22, 23, 24, 22, 22, 23, 22, 24, 24, 22, 24, 27, 22, 24, 22, 24, 24
45, 43, 49, 30, 20, 21, 25, 28, 24, 27, 29, 22, 24, 28, 22, 25, 28, 27, 22, 33, 44, 45, 6, 25, 22, 23, 24, 22, 22, 23, 22, 24, 24, 22, 24, 27, 22, 24, 3, 2, 1, 25, 22, 23, 24, 22, 22, 23, 22, 24, 24, 22, 24, 27, 22, 24, 22, 23, 18, 20, 19, 23, 24, 22, 22, 23, 22, 24, 24, 22, 24, 27, 22, 24, 22, 24, 24, 25, 22, 23, 24, 22, 22, 23, 22, 24, 24, 22, 24, 27, 22, 24, 22, 24, 24
45, 43, 49, 30, 20, 21, 25, 28, 24, 27, 29, 22, 24, 28, 22, 25, 28, 27, 22, 33, 44, 45, 5, 25, 22, 23, 24, 22, 22, 23, 22, 24, 24, 22, 24, 27, 22, 24, 3, 2, 1, 25, 22, 23, 24, 22, 22, 23, 22, 24, 24, 22, 24, 27, 22, 24, 22, 23, 18, 20, 19, 23, 24, 22, 22, 23, 22, 24, 24, 22, 24, 27, 22, 24, 22, 24, 24, 25, 22, 23, 24, 22, 22, 23, 22, 24, 24, 22, 24, 27, 22, 24, 22, 24, 24
45, 43, 49, 30, 20, 21, 25, 28, 24, 27, 29, 22, 24, 28, 22, 25, 28, 27, 22, 33, 44, 45, 5, 25, 22, 23, 24, 22, 22, 23, 22, 24, 24, 22, 24, 27, 22, 24, 3, 2, 1, 25, 22, 23, 24, 22, 22, 23, 22, 24, 24, 22, 24, 27, 22, 24, 22, 23, 18, 20, 19, 23, 24, 22, 22, 23, 22, 24, 24, 22, 24, 27, 22, 24, 22, 24, 24, 25, 22, 23, 24, 22, 22, 23, 22, 24, 24, 22, 24, 27, 22, 24, 22, 24, 24
45, 43, 49, 30, 20, 21, 25, 28, 24, 27, 29, 22, 24, 28, 22, 25, 28, 27, 22, 33, 44, 45, 5, 25, 22, 23, 24, 22, 22, 23, 22, 24, 24, 22, 24, 27, 22, 24, 3, 2, 1, 25, 22, 23, 24, 22, 22, 23, 22, 24, 24, 22, 24, 27, 22, 24, 22, 23, 18, 20, 19, 23, 24, 22, 22, 23, 22, 24, 24, 22, 24, 27, 22, 24, 22, 24, 24, 25, 22, 23, 24, 22, 22, 23, 22, 24, 24, 22, 24, 27, 22, 24, 22, 24, 24
45, 43, 49, 30, 20, 21, 25, 28, 24, 27, 29, 22, 24, 28, 22, 25, 28, 27, 22, 33, 44, 45, 5, 25, 22, 23, 24, 22, 22, 23, 22, 24, 24, 22, 24, 27, 22, 24, 3, 2, 1, 25, 22, 23, 24, 22, 22, 23, 22, 24, 24, 22, 24, 27, 22, 24, 22, 23, 18, 20, 19, 23, 24, 22, 22, 23, 22, 24, 24, 22, 24, 27, 22, 24, 22, 24, 24, 25, 22, 23, 24, 22, 22, 23, 22, 24, 24, 22, 24, 27, 22, 24, 22, 24, 24
45, 43, 49, 30, 20, 21, 25, 28, 24, 27, 29, 22, 24, 28, 22, 25, 28, 27, 22, 33, 44, 45, 5, 25, 22, 23, 24, 22, 22, 23, 22, 24, 24, 22, 24, 27, 22, 24, 3, 2, 1, 25, 22, 23, 24, 22, 22, 23, 22, 24, 24, 22, 24, 27, 22, 24, 22, 23, 18, 20, 19, 23, 24, 22, 22, 23, 22, 24, 24, 22, 24, 27, 22, 24, 22, 24, 24, 25, 22, 23, 24, 22, 22, 23, 22, 24, 24, 22, 24, 27, 22, 24, 22, 24, 24
